{
  "type": "FeatureCollection",
  "features": [{
    "type": "Feature",
    "geometry": {
      "type": "Polygon",
      "coordinates": [
        [
          [2.204175118956685, 48.88931359808801],
          [2.204337371752383, 48.889405509689304],
          [2.205256719458234, 48.88993260256104],
          [2.206203217251764, 48.890469221107985],
          [2.207082106062855, 48.89096878104097],
          [2.211760256699651, 48.8936626031587],
          [2.211936051834752, 48.893762687080304],
          [2.212046789043546, 48.89368247559336],
          [2.214319048997544, 48.89203093614097],
          [2.215005655723285, 48.89137766427501],
          [2.216123328200441, 48.8905179350404],
          [2.216448438989353, 48.890383903181664],
          [2.216543898456656, 48.89037544448876],
          [2.216439392978509, 48.88997905203319],
          [2.216374791500969, 48.88792813673013],
          [2.216542893087531, 48.887632454644866],
          [2.214922256622436, 48.88648867035456],
          [2.214560609750214, 48.88623448298828],
          [2.214397515690122, 48.88612549202267],
          [2.214275741028466, 48.88604375222494],
          [2.214084156855508, 48.88604249482144],
          [2.209508632498892, 48.886372110429484],
          [2.209377290346158, 48.886400022150355],
          [2.208147858545719, 48.88697566023346],
          [2.207465217142864, 48.887303810032314],
          [2.206297237329114, 48.887880195394565],
          [2.205250037226253, 48.88858336856195],
          [2.204243989727808, 48.88926908880832],
          [2.204175118956685, 48.88931359808801]
        ]
      ]
    },
    "properties": {
      "iris": "0509",
      "num_dept": "92",
      "nom_dept": "HAUTS-DE-SEINE",
      "code_region": "11",
      "typ_iris": "H",
      "nom_region": "ILE-DE-FRANCE",
      "geo_point_2d": [48.8894125785569, 2.2112222340255623],
      "p12_pop": 3441.70358518,
      "nom_com": "Nanterre",
      "depcom": "92050",
      "nom_iris": "Champs Pierreux",
      "code_region_2016": "11",
      "dcomiris": "920500509"
    }
  }, {
    "type": "Feature",
    "geometry": {
      "type": "Polygon",
      "coordinates": [
        [
          [2.229917567816226, 48.890400685194216],
          [2.230167532878442, 48.890799079520214],
          [2.226838450633603, 48.89356844687872],
          [2.226829962431575, 48.89368080880357],
          [2.226817923576334, 48.89412410254144],
          [2.226802390802679, 48.894343439585775],
          [2.226790693994125, 48.89448815670587],
          [2.226565910335732, 48.89483744499453],
          [2.226161552555781, 48.89515499519981],
          [2.22371269859521, 48.89592336387767],
          [2.223054978054695, 48.89612504563659],
          [2.222524962622947, 48.89608653189936],
          [2.220838314779486, 48.89554505363876],
          [2.220299032781844, 48.89503288081859],
          [2.220240457901589, 48.89439037518222],
          [2.220031339637778, 48.894100776756616],
          [2.219854834883507, 48.89386490074732],
          [2.219024529889358, 48.894024966163954],
          [2.21864103341065, 48.89413128396881],
          [2.21842148475622, 48.89421915514003],
          [2.217362033144648, 48.894832506509914],
          [2.215792380027563, 48.8958115048731],
          [2.215695962621623, 48.89587382677948],
          [2.216508185830639, 48.896328809941764],
          [2.217331543278001, 48.896797170199406],
          [2.223487349025767, 48.897497621911945],
          [2.230209228819173, 48.896668576994294],
          [2.230962155571946, 48.896576286650095],
          [2.231802047601758, 48.89645073462181],
          [2.232481402695879, 48.89631533449733],
          [2.232892680902699, 48.896174076712796],
          [2.233494578422395, 48.89596299057701],
          [2.233627030461587, 48.8958604151865],
          [2.2337839378819, 48.89567166030695],
          [2.234251421539955, 48.89504691700637],
          [2.234204558060606, 48.89499670441544],
          [2.233490074655277, 48.89423075860685],
          [2.232775477218183, 48.89346471720166],
          [2.232060899482085, 48.89269876092196],
          [2.231346480472221, 48.89193271079374],
          [2.230631944782722, 48.891166744917165],
          [2.229917567816226, 48.890400685194216]
        ]
      ]
    },
    "properties": {
      "iris": "0511",
      "num_dept": "92",
      "nom_dept": "HAUTS-DE-SEINE",
      "code_region": "11",
      "typ_iris": "H",
      "nom_region": "ILE-DE-FRANCE",
      "geo_point_2d": [48.89508247732119, 2.2264488344638615],
      "p12_pop": 2403.89422733,
      "nom_com": "Nanterre",
      "depcom": "92050",
      "nom_iris": "Ravel Liberte Vallona",
      "code_region_2016": "11",
      "dcomiris": "920500511"
    }
  }, {
    "type": "Feature",
    "geometry": {
      "type": "Polygon",
      "coordinates": [
        [
          [2.229099484159876, 48.906027032330186],
          [2.229007862057584, 48.90604173111412],
          [2.226565311441334, 48.905252565494045],
          [2.219626733795443, 48.90298622509452],
          [2.219409064211038, 48.90394708611196],
          [2.219337894333079, 48.904144474008305],
          [2.219281308711005, 48.90427900408129],
          [2.218863857009747, 48.90482487102825],
          [2.218558764196661, 48.905155631349615],
          [2.218020419841375, 48.905574800752966],
          [2.217703162823842, 48.90580655358889],
          [2.217234766373377, 48.90609127742687],
          [2.216656964416856, 48.90639327043917],
          [2.215985292053232, 48.906586727321226],
          [2.213861522312258, 48.90715736841773],
          [2.213011947713785, 48.907403600358215],
          [2.213267879169978, 48.907620759600675],
          [2.214430185686296, 48.90834838626303],
          [2.216395770790235, 48.90918935694371],
          [2.217796577482284, 48.90975798041194],
          [2.218659059907423, 48.910107060016266],
          [2.219157246210085, 48.91027578353481],
          [2.219891181346753, 48.90973557679279],
          [2.222898224055979, 48.90865525191637],
          [2.223332210679988, 48.90881994450508],
          [2.223644364061215, 48.90892988662722],
          [2.224758443312955, 48.909233878007676],
          [2.22517960438026, 48.909353514688846],
          [2.225682218294913, 48.90950065603546],
          [2.226035306958058, 48.90961085640082],
          [2.22714416307649, 48.90982746745846],
          [2.227231130362208, 48.90962136466368],
          [2.22759680590659, 48.908754979091945],
          [2.227948608290636, 48.907921687357764],
          [2.228455676111683, 48.907086876123174],
          [2.228962865412233, 48.90625197305773],
          [2.229099484159876, 48.906027032330186]
        ]
      ]
    },
    "properties": {
      "iris": "0704",
      "num_dept": "92",
      "nom_dept": "HAUTS-DE-SEINE",
      "code_region": "11",
      "typ_iris": "H",
      "nom_region": "ILE-DE-FRANCE",
      "geo_point_2d": [48.907003646671555, 2.221635982573172],
      "p12_pop": 1925.00472205,
      "nom_com": "Nanterre",
      "depcom": "92050",
      "nom_iris": "Paquerettes Ouest",
      "code_region_2016": "11",
      "dcomiris": "920500704"
    }
  }, {
    "type": "Feature",
    "geometry": {
      "type": "Polygon",
      "coordinates": [
        [
          [2.229099484159876, 48.906027032330186],
          [2.229564517667415, 48.90518160241941],
          [2.230029671146375, 48.90433626084935],
          [2.230494674442334, 48.90349082601823],
          [2.230959799036869, 48.902645389603386],
          [2.231424772123241, 48.901799949852936],
          [2.23188986517832, 48.900954598442475],
          [2.23189757672118, 48.90094043852841],
          [2.231629014521641, 48.900651830419164],
          [2.230571037804304, 48.90033656880455],
          [2.230624145695814, 48.900250484566705],
          [2.23113802676129, 48.899417409363366],
          [2.231651753661259, 48.89858442037013],
          [2.232165601837945, 48.89775133948918],
          [2.23253863859886, 48.89727186959904],
          [2.233161366002533, 48.896471767300596],
          [2.2337839378819, 48.89567166030695],
          [2.233627030461587, 48.8958604151865],
          [2.233494578422395, 48.89596299057701],
          [2.232892680902699, 48.896174076712796],
          [2.232481402695879, 48.89631533449733],
          [2.231802047601758, 48.89645073462181],
          [2.230962155571946, 48.896576286650095],
          [2.230209228819173, 48.896668576994294],
          [2.223487349025767, 48.897497621911945],
          [2.217331543278001, 48.896797170199406],
          [2.216508185830639, 48.896328809941764],
          [2.215695962621623, 48.89587382677948],
          [2.214614110519464, 48.895255189731365],
          [2.213397397294562, 48.89453672981946],
          [2.213329750259641, 48.89450031206898],
          [2.213221460843108, 48.89444564056786],
          [2.212274414345619, 48.89393578704018],
          [2.211990195129487, 48.893790023441646],
          [2.211936051834752, 48.893762687080304],
          [2.211714849152437, 48.89392311152491],
          [2.211066098077103, 48.894377500150725],
          [2.210888531023586, 48.89443029028984],
          [2.210602268044952, 48.89448236369625],
          [2.210357055202295, 48.8945077270625],
          [2.209825305635124, 48.894531199576086],
          [2.208707091361036, 48.89534221055976],
          [2.207999363405028, 48.89611995281852],
          [2.207888476654416, 48.89623613282433],
          [2.209130657342342, 48.8969817960098],
          [2.209987886681488, 48.8971200156803],
          [2.210417199879245, 48.89678343872087],
          [2.210445431159853, 48.89582133802708],
          [2.210272496474194, 48.89553241084402],
          [2.20995975648004, 48.89537836056469],
          [2.210556458372567, 48.89470599609511],
          [2.210909414679365, 48.89481624253452],
          [2.211561320080293, 48.895027653121645],
          [2.21229779386367, 48.89554574967886],
          [2.212358516721805, 48.89640051593453],
          [2.212389774515403, 48.89706622786445],
          [2.212380661838286, 48.897731673879534],
          [2.21216012530772, 48.8978831097284],
          [2.212826392976871, 48.897959437463214],
          [2.213464707362457, 48.89811651774242],
          [2.213722898513005, 48.89818116636378],
          [2.213707767720319, 48.898315966749784],
          [2.213645882644286, 48.89890012572163],
          [2.213641130731473, 48.89925083354809],
          [2.213759675184411, 48.89953939762607],
          [2.213772907167542, 48.8995664644052],
          [2.213891595809147, 48.899746210250406],
          [2.214843269045516, 48.89950513723326],
          [2.216693723247519, 48.89891020627446],
          [2.217718224382275, 48.898540982425324],
          [2.218377671113609, 48.89850032157404],
          [2.218908301708198, 48.89849928690173],
          [2.219847702687285, 48.898527893313535],
          [2.220078413133014, 48.898697570790546],
          [2.220246303701304, 48.89887223477482],
          [2.220354374741752, 48.89912475079975],
          [2.220264241139688, 48.89931392262902],
          [2.219520965490581, 48.90048720277047],
          [2.218814646226974, 48.90164992637223],
          [2.218880158963989, 48.902738540151624],
          [2.219001836077211, 48.90277530672462],
          [2.219123546913905, 48.90295533619649],
          [2.219105824643924, 48.903154601436064],
          [2.219002651823548, 48.90358470621502],
          [2.219049657273971, 48.90407964218284],
          [2.219337894333079, 48.904144474008305],
          [2.219409064211038, 48.90394708611196],
          [2.219626733795443, 48.90298622509452],
          [2.226565311441334, 48.905252565494045],
          [2.229007862057584, 48.90604173111412],
          [2.229099484159876, 48.906027032330186]
        ]
      ]
    },
    "properties": {
      "iris": "0605",
      "num_dept": "92",
      "nom_dept": "HAUTS-DE-SEINE",
      "code_region": "11",
      "typ_iris": "H",
      "nom_region": "ILE-DE-FRANCE",
      "geo_point_2d": [48.89986090980512, 2.22311803544153],
      "p12_pop": 1337.70482678,
      "nom_com": "Nanterre",
      "depcom": "92050",
      "nom_iris": "Les Groues-Pr\u00e9fecture",
      "code_region_2016": "11",
      "dcomiris": "920500605"
    }
  }, {
    "type": "Feature",
    "geometry": {
      "type": "Polygon",
      "coordinates": [
        [
          [2.209203431090266, 48.89946443302203],
          [2.209093361884398, 48.899436726255814],
          [2.207655658444452, 48.89897755747065],
          [2.207112689737639, 48.89881208426639],
          [2.206610916747188, 48.89861990151018],
          [2.201236854059184, 48.89682148573448],
          [2.200802486846529, 48.89668368764857],
          [2.200623113293585, 48.8968173906009],
          [2.199011477008487, 48.897840856163796],
          [2.201962555760916, 48.90027076774343],
          [2.203974372265317, 48.901579192040344],
          [2.204703375723279, 48.90205168643173],
          [2.2059108267008, 48.9016819797102],
          [2.213814343514149, 48.90124857293713],
          [2.214440286064904, 48.901351516384],
          [2.21446756313999, 48.90135187515689],
          [2.214712527781192, 48.90139017418887],
          [2.214480384536313, 48.901315806227515],
          [2.211984125605495, 48.900499004800935],
          [2.20943393546764, 48.899537901292085],
          [2.209203431090266, 48.89946443302203]
        ]
      ]
    },
    "properties": {
      "iris": "0801",
      "num_dept": "92",
      "nom_dept": "HAUTS-DE-SEINE",
      "code_region": "11",
      "typ_iris": "H",
      "nom_region": "ILE-DE-FRANCE",
      "geo_point_2d": [48.899684076414935, 2.2053657461912226],
      "p12_pop": 3459.4588445,
      "nom_com": "Nanterre",
      "depcom": "92050",
      "nom_iris": "Pathelot Rouget de l'Isle",
      "code_region_2016": "11",
      "dcomiris": "920500801"
    }
  }, {
    "type": "Feature",
    "geometry": {
      "type": "Polygon",
      "coordinates": [
        [
          [2.204703375723279, 48.90205168643173],
          [2.203277501404714, 48.90251975374778],
          [2.202206828136135, 48.902952398738606],
          [2.200440978482518, 48.90423583661874],
          [2.198286992487378, 48.90591289378395],
          [2.19683259486727, 48.90575206331719],
          [2.19503873968741, 48.90511768651739],
          [2.194362128156095, 48.90476221956997],
          [2.193289676414137, 48.90442153019612],
          [2.193154526691949, 48.90486758618087],
          [2.193124055011122, 48.904985192930056],
          [2.192109675948855, 48.90564071048313],
          [2.193325301327981, 48.90604883453782],
          [2.194541083572874, 48.90645685709687],
          [2.195756747075404, 48.90686495617071],
          [2.196972431027289, 48.907272952831015],
          [2.197819633450366, 48.90755733058574],
          [2.19898213230409, 48.90802799288275],
          [2.200144652181248, 48.90849864369486],
          [2.200591009269503, 48.90867932989045],
          [2.2015014877313, 48.90904836988002],
          [2.202663638408063, 48.90951935277013],
          [2.203825946538311, 48.90999032508878],
          [2.204988139280569, 48.91046128502085],
          [2.205445396672948, 48.910636179326],
          [2.205981150927397, 48.91039691469518],
          [2.212297824926622, 48.90763273060636],
          [2.212448834265353, 48.90757077087991],
          [2.212544869091541, 48.90753542929195],
          [2.212777590413968, 48.907474006297036],
          [2.213011947713785, 48.907403600358215],
          [2.213861522312258, 48.90715736841773],
          [2.215985292053232, 48.906586727321226],
          [2.216656964416856, 48.90639327043917],
          [2.217234766373377, 48.90609127742687],
          [2.217703162823842, 48.90580655358889],
          [2.218020419841375, 48.905574800752966],
          [2.218558764196661, 48.905155631349615],
          [2.218863857009747, 48.90482487102825],
          [2.219281308711005, 48.90427900408129],
          [2.219337894333079, 48.904144474008305],
          [2.219049657273971, 48.90407964218284],
          [2.219002651823548, 48.90358470621502],
          [2.219105824643924, 48.903154601436064],
          [2.219123546913905, 48.90295533619649],
          [2.219001836077211, 48.90277530672462],
          [2.218880158963989, 48.902738540151624],
          [2.215351863406283, 48.90160031068708],
          [2.214834744395776, 48.90142694861775],
          [2.214712527781192, 48.90139017418887],
          [2.21446756313999, 48.90135187515689],
          [2.214440286064904, 48.901351516384],
          [2.214164501709727, 48.9015475595402],
          [2.213626295128282, 48.90195771818523],
          [2.213612383384734, 48.90197561341321],
          [2.213322273015458, 48.90221652691328],
          [2.211582371615163, 48.90360803778132],
          [2.210809097690869, 48.904223480917125],
          [2.209320688366242, 48.90435359992263],
          [2.20828407180759, 48.904395675765464],
          [2.205108596813951, 48.90231509204863],
          [2.204703375723279, 48.90205168643173]
        ]
      ]
    },
    "properties": {
      "iris": "0607",
      "num_dept": "92",
      "nom_dept": "HAUTS-DE-SEINE",
      "code_region": "11",
      "typ_iris": "H",
      "nom_region": "ILE-DE-FRANCE",
      "geo_point_2d": [48.90584117562763, 2.2072122906511096],
      "p12_pop": 1910.07847681,
      "nom_com": "Nanterre",
      "depcom": "92050",
      "nom_iris": "Universite Groues",
      "code_region_2016": "11",
      "dcomiris": "920500607"
    }
  }, {
    "type": "Feature",
    "geometry": {
      "type": "Polygon",
      "coordinates": [
        [
          [2.224653761991348, 48.91259755602774],
          [2.225242857647952, 48.91284903960833],
          [2.225591866925451, 48.91300561922911],
          [2.225629813018481, 48.91302295156252],
          [2.225768034917381, 48.91308679721214],
          [2.226133759164928, 48.912220418862425],
          [2.226499606325688, 48.91135412951119],
          [2.226865306220794, 48.91048774755],
          [2.22714416307649, 48.90982746745846],
          [2.226035306958058, 48.90961085640082],
          [2.225682218294913, 48.90950065603546],
          [2.22517960438026, 48.909353514688846],
          [2.224758443312955, 48.909233878007676],
          [2.224423936702561, 48.90970817297649],
          [2.224033388403679, 48.910280489494305],
          [2.223823791482351, 48.910611970051704],
          [2.223334494387154, 48.91140064987263],
          [2.223166617690277, 48.91167871011226],
          [2.224439107731707, 48.91235245120375],
          [2.224709954298608, 48.912489102167164],
          [2.224653761991348, 48.91259755602774]
        ]
      ]
    },
    "properties": {
      "iris": "0702",
      "num_dept": "92",
      "nom_dept": "HAUTS-DE-SEINE",
      "code_region": "11",
      "typ_iris": "H",
      "nom_region": "ILE-DE-FRANCE",
      "geo_point_2d": [48.91104054207377, 2.225212450446148],
      "p12_pop": 2223.0514306,
      "nom_com": "Nanterre",
      "depcom": "92050",
      "nom_iris": "Canibouts",
      "code_region_2016": "11",
      "dcomiris": "920500702"
    }
  }, {
    "type": "Feature",
    "geometry": {
      "type": "Polygon",
      "coordinates": [
        [
          [2.204175118956685, 48.88931359808801],
          [2.204243989727808, 48.88926908880832],
          [2.205250037226253, 48.88858336856195],
          [2.206297237329114, 48.887880195394565],
          [2.207465217142864, 48.887303810032314],
          [2.208147858545719, 48.88697566023346],
          [2.209377290346158, 48.886400022150355],
          [2.2101856461238, 48.88597277379625],
          [2.21091203875941, 48.885643907394474],
          [2.211955026375491, 48.885219092437296],
          [2.212710019641466, 48.884918282908394],
          [2.213368740562513, 48.884670796670555],
          [2.21390419308743, 48.88445847122565],
          [2.212975631873453, 48.883910067061024],
          [2.211307348518224, 48.88300783910522],
          [2.21015363155812, 48.88259912565331],
          [2.208990853689137, 48.882123789399685],
          [2.208477346698935, 48.88262402879606],
          [2.208130469262323, 48.883016547354615],
          [2.206964302946826, 48.884376101512885],
          [2.206588743409782, 48.88485952862931],
          [2.206185767069924, 48.88535185599335],
          [2.205852339123259, 48.885754349151526],
          [2.20089521044285, 48.887079374406426],
          [2.200429664294933, 48.88712123354858],
          [2.200781275120822, 48.887403276415036],
          [2.203782958373989, 48.88909487960304],
          [2.204175118956685, 48.88931359808801]
        ]
      ]
    },
    "properties": {
      "iris": "0101",
      "num_dept": "92",
      "nom_dept": "HAUTS-DE-SEINE",
      "code_region": "11",
      "typ_iris": "H",
      "nom_region": "ILE-DE-FRANCE",
      "geo_point_2d": [48.885718708270126, 2.2074323874498423],
      "p12_pop": 2060.1756901,
      "nom_com": "Nanterre",
      "depcom": "92050",
      "nom_iris": "Chenevreux",
      "code_region_2016": "11",
      "dcomiris": "920500101"
    }
  }, {
    "type": "Feature",
    "geometry": {
      "type": "Polygon",
      "coordinates": [
        [
          [2.196595046445527, 48.895324519090295],
          [2.196495716498815, 48.89548573311035],
          [2.193525318260301, 48.89449538190611],
          [2.190090886547649, 48.893356125045415],
          [2.186916885455999, 48.892318362796786],
          [2.186319366005061, 48.892152422988126],
          [2.186250476099204, 48.89219692184029],
          [2.185691200172572, 48.892202113296875],
          [2.186153707024934, 48.89236713871613],
          [2.186204503816822, 48.89252037164826],
          [2.186528011117315, 48.89276539135539],
          [2.187110484563233, 48.89304814189794],
          [2.189003180154188, 48.89374015550216],
          [2.191422822761056, 48.894625097989625],
          [2.192249863398248, 48.89494544728679],
          [2.193727515049107, 48.89553080050849],
          [2.194851156893087, 48.896077692028484],
          [2.195957992228509, 48.89683112687334],
          [2.194763082132396, 48.897362699144495],
          [2.193100381316019, 48.89815191538051],
          [2.193449020475588, 48.89845194335646],
          [2.194644516085236, 48.899366336605055],
          [2.195059580215701, 48.89971195259243],
          [2.194915473639689, 48.900253820900545],
          [2.19367344599214, 48.903425229461895],
          [2.193289676414137, 48.90442153019612],
          [2.194362128156095, 48.90476221956997],
          [2.19503873968741, 48.90511768651739],
          [2.19683259486727, 48.90575206331719],
          [2.198286992487378, 48.90591289378395],
          [2.200440978482518, 48.90423583661874],
          [2.202206828136135, 48.902952398738606],
          [2.203277501404714, 48.90251975374778],
          [2.204703375723279, 48.90205168643173],
          [2.203974372265317, 48.901579192040344],
          [2.201962555760916, 48.90027076774343],
          [2.199011477008487, 48.897840856163796],
          [2.200623113293585, 48.8968173906009],
          [2.200802486846529, 48.89668368764857],
          [2.199607686100272, 48.89632442810633],
          [2.197612526686068, 48.89568118240819],
          [2.196595046445527, 48.895324519090295]
        ]
      ]
    },
    "properties": {
      "iris": "0802",
      "num_dept": "92",
      "nom_dept": "HAUTS-DE-SEINE",
      "code_region": "11",
      "typ_iris": "H",
      "nom_region": "ILE-DE-FRANCE",
      "geo_point_2d": [48.90025182479787, 2.197216270635692],
      "p12_pop": 2355.3406775,
      "nom_com": "Nanterre",
      "depcom": "92050",
      "nom_iris": "Komarov",
      "code_region_2016": "11",
      "dcomiris": "920500802"
    }
  }, {
    "type": "Feature",
    "geometry": {
      "type": "Polygon",
      "coordinates": [
        [
          [2.224492298268971, 48.88543315789],
          [2.223830539472757, 48.88468889183189],
          [2.223140768564769, 48.88391314262504],
          [2.222451018206857, 48.88313738889734],
          [2.222428758881596, 48.883166922648165],
          [2.221007548851936, 48.88363298662731],
          [2.2146782339534, 48.88557873523232],
          [2.214237345362058, 48.88497328339225],
          [2.21390419308743, 48.88445847122565],
          [2.213368740562513, 48.884670796670555],
          [2.212710019641466, 48.884918282908394],
          [2.211955026375491, 48.885219092437296],
          [2.21091203875941, 48.885643907394474],
          [2.2101856461238, 48.88597277379625],
          [2.209377290346158, 48.886400022150355],
          [2.209508632498892, 48.886372110429484],
          [2.214084156855508, 48.88604249482144],
          [2.214275741028466, 48.88604375222494],
          [2.214644045553906, 48.8860371752024],
          [2.21774330993802, 48.88579665519909],
          [2.219095010057444, 48.88568856449642],
          [2.219790702136384, 48.88565712626127],
          [2.221796492327008, 48.88550829856662],
          [2.224374268703303, 48.88530046003221],
          [2.224492298268971, 48.88543315789]
        ]
      ]
    },
    "properties": {
      "iris": "0102",
      "num_dept": "92",
      "nom_dept": "HAUTS-DE-SEINE",
      "code_region": "11",
      "typ_iris": "H",
      "nom_region": "ILE-DE-FRANCE",
      "geo_point_2d": [48.88504759362586, 2.218108085223377],
      "p12_pop": 2117.5986514,
      "nom_com": "Nanterre",
      "depcom": "92050",
      "nom_iris": "Clemenceau",
      "code_region_2016": "11",
      "dcomiris": "920500102"
    }
  }, {
    "type": "Feature",
    "geometry": {
      "type": "Polygon",
      "coordinates": [
        [
          [2.177223664945821, 48.89154347226008],
          [2.177054746957115, 48.891616956809344],
          [2.180387803903817, 48.89206637414679],
          [2.180960154708571, 48.892097000708034],
          [2.181464454802848, 48.89211852571253],
          [2.183264144400454, 48.89215950311919],
          [2.18532339716061, 48.892173530706515],
          [2.185691200172572, 48.892202113296875],
          [2.186250476099204, 48.89219692184029],
          [2.186319366005061, 48.892152422988126],
          [2.186484701298689, 48.89204562557386],
          [2.186769256730218, 48.89216474237731],
          [2.187028077436333, 48.89218511615717],
          [2.18931860885584, 48.89223661855779],
          [2.189605555451864, 48.892202587274184],
          [2.189770164623129, 48.892177080730576],
          [2.190005535219052, 48.8921355947238],
          [2.190886958841156, 48.89191105302782],
          [2.191812180823268, 48.89157941933222],
          [2.19218168959197, 48.89142767594777],
          [2.191966424193916, 48.891237362195504],
          [2.190331252887069, 48.89100283084515],
          [2.188352145820625, 48.89123989859956],
          [2.186434640538546, 48.890885136573424],
          [2.184524554170363, 48.889100440608054],
          [2.183917892029872, 48.88847648041438],
          [2.183611989695402, 48.888624585380384],
          [2.182526320014754, 48.88916874512467],
          [2.181604484153333, 48.889630915565114],
          [2.180511909684007, 48.89016916391791],
          [2.180239621925005, 48.890303280619705],
          [2.179082401754174, 48.89077910857119],
          [2.177925159013201, 48.89125501505725],
          [2.177223664945821, 48.89154347226008]
        ]
      ]
    },
    "properties": {
      "iris": "0303",
      "num_dept": "92",
      "nom_dept": "HAUTS-DE-SEINE",
      "code_region": "11",
      "typ_iris": "H",
      "nom_region": "ILE-DE-FRANCE",
      "geo_point_2d": [48.89100979216181, 2.184087588768686],
      "p12_pop": 1894.62368439,
      "nom_com": "Nanterre",
      "depcom": "92050",
      "nom_iris": "Langevin",
      "code_region_2016": "11",
      "dcomiris": "920500303"
    }
  }, {
    "type": "Feature",
    "geometry": {
      "type": "Polygon",
      "coordinates": [
        [
          [2.209203431090266, 48.89946443302203],
          [2.20943393546764, 48.899537901292085],
          [2.211984125605495, 48.900499004800935],
          [2.214480384536313, 48.901315806227515],
          [2.214712527781192, 48.90139017418887],
          [2.214834744395776, 48.90142694861775],
          [2.215351863406283, 48.90160031068708],
          [2.218880158963989, 48.902738540151624],
          [2.218814646226974, 48.90164992637223],
          [2.219520965490581, 48.90048720277047],
          [2.220264241139688, 48.89931392262902],
          [2.220354374741752, 48.89912475079975],
          [2.220246303701304, 48.89887223477482],
          [2.220078413133014, 48.898697570790546],
          [2.219847702687285, 48.898527893313535],
          [2.218908301708198, 48.89849928690173],
          [2.218377671113609, 48.89850032157404],
          [2.217718224382275, 48.898540982425324],
          [2.216693723247519, 48.89891020627446],
          [2.214843269045516, 48.89950513723326],
          [2.213891595809147, 48.899746210250406],
          [2.213772907167542, 48.8995664644052],
          [2.213759675184411, 48.89953939762607],
          [2.213641130731473, 48.89925083354809],
          [2.213645882644286, 48.89890012572163],
          [2.213707767720319, 48.898315966749784],
          [2.213722898513005, 48.89818116636378],
          [2.213464707362457, 48.89811651774242],
          [2.212826392976871, 48.897959437463214],
          [2.21216012530772, 48.8978831097284],
          [2.211858706337853, 48.897971059664634],
          [2.211171033380606, 48.89834425150237],
          [2.211129707282313, 48.89837095924437],
          [2.209504453546197, 48.899403467116265],
          [2.209203431090266, 48.89946443302203]
        ]
      ]
    },
    "properties": {
      "iris": "0602",
      "num_dept": "92",
      "nom_dept": "HAUTS-DE-SEINE",
      "code_region": "11",
      "typ_iris": "H",
      "nom_region": "ILE-DE-FRANCE",
      "geo_point_2d": [48.90002624308498, 2.2155253839438624],
      "p12_pop": 2561.39671404,
      "nom_com": "Nanterre",
      "depcom": "92050",
      "nom_iris": "Provinces Francaises",
      "code_region_2016": "11",
      "dcomiris": "920500602"
    }
  }, {
    "type": "Feature",
    "geometry": {
      "type": "Polygon",
      "coordinates": [
        [
          [2.197199583945305, 48.88113462426089],
          [2.19707181285985, 48.88121434892815],
          [2.197133797198302, 48.881262430034404],
          [2.199726756679926, 48.88260650681174],
          [2.202312700043728, 48.883491452604694],
          [2.203399101781449, 48.88387641073718],
          [2.203553479378727, 48.883679581996255],
          [2.205079982974016, 48.88185596214948],
          [2.205966325340669, 48.880962138038456],
          [2.206035603060379, 48.88089011016679],
          [2.206699098545942, 48.88033691357745],
          [2.205966975936728, 48.880078803810385],
          [2.204866379766437, 48.879707622929054],
          [2.204160509003118, 48.87911583817868],
          [2.203130070742122, 48.877574694157914],
          [2.203019128020587, 48.877518195922555],
          [2.202045756464678, 48.87814791157335],
          [2.201072226410794, 48.878777528114426],
          [2.200098807778609, 48.8794072272155],
          [2.199255243551359, 48.879952798424156],
          [2.198227425410456, 48.8805437159131],
          [2.197199583945305, 48.88113462426089]
        ]
      ]
    },
    "properties": {
      "iris": "0203",
      "num_dept": "92",
      "nom_dept": "HAUTS-DE-SEINE",
      "code_region": "11",
      "typ_iris": "H",
      "nom_region": "ILE-DE-FRANCE",
      "geo_point_2d": [48.880897579138576, 2.2021074325831225],
      "p12_pop": 2071.58091024,
      "nom_com": "Nanterre",
      "depcom": "92050",
      "nom_iris": "Saint-Cloud",
      "code_region_2016": "11",
      "dcomiris": "920500203"
    }
  }, {
    "type": "Feature",
    "geometry": {
      "type": "MultiPolygon",
      "coordinates": [
        [
          [
            [2.215179813307282, 48.878067911408515],
            [2.215179819225064, 48.87806790836237],
            [2.214798992341772, 48.877877807105676],
            [2.215179813307282, 48.878067911408515]
          ]
        ],
        [
          [
            [2.222451018206857, 48.88313738889734],
            [2.223615689603868, 48.88276362577063],
            [2.222639011619695, 48.88213611169467],
            [2.221662358516455, 48.881508499368046],
            [2.220685727607214, 48.88088096864243],
            [2.220235035465422, 48.88059132277598],
            [2.219147808253173, 48.88004867607178],
            [2.218060605047762, 48.8795059293011],
            [2.21697328681002, 48.87896326142411],
            [2.215886128924045, 48.87842049437178],
            [2.215179813307282, 48.878067911408515],
            [2.212898913877604, 48.879241960800506],
            [2.211871506752097, 48.879717880991905],
            [2.209627893996768, 48.881416884195474],
            [2.208990853689137, 48.882123789399685],
            [2.21015363155812, 48.88259912565331],
            [2.211307348518224, 48.88300783910522],
            [2.212975631873453, 48.883910067061024],
            [2.21390419308743, 48.88445847122565],
            [2.214237345362058, 48.88497328339225],
            [2.2146782339534, 48.88557873523232],
            [2.221007548851936, 48.88363298662731],
            [2.222428758881596, 48.883166922648165],
            [2.222451018206857, 48.88313738889734]
          ]
        ]
      ]
    },
    "properties": {
      "iris": "0103",
      "num_dept": "92",
      "nom_dept": "HAUTS-DE-SEINE",
      "code_region": "11",
      "typ_iris": "H",
      "nom_region": "ILE-DE-FRANCE",
      "geo_point_2d": [48.881885607575924, 2.2159733074918426],
      "p12_pop": 3370.291466,
      "nom_com": "Nanterre",
      "depcom": "92050",
      "nom_iris": "Haut Plateau",
      "code_region_2016": "11",
      "dcomiris": "920500103"
    }
  }, {
    "type": "Feature",
    "geometry": {
      "type": "Polygon",
      "coordinates": [
        [
          [2.196595046445527, 48.895324519090295],
          [2.197612526686068, 48.89568118240819],
          [2.199607686100272, 48.89632442810633],
          [2.200802486846529, 48.89668368764857],
          [2.201236854059184, 48.89682148573448],
          [2.206610916747188, 48.89861990151018],
          [2.207112689737639, 48.89881208426639],
          [2.206844699278875, 48.89849563347719],
          [2.206724001112003, 48.89836002416575],
          [2.206564303767702, 48.89809833973923],
          [2.206503364777528, 48.89762182928519],
          [2.206841113529591, 48.89694039363995],
          [2.207393650321087, 48.89648503202297],
          [2.207888476654416, 48.89623613282433],
          [2.207999363405028, 48.89611995281852],
          [2.208707091361036, 48.89534221055976],
          [2.209825305635124, 48.894531199576086],
          [2.209527178901119, 48.894403325121516],
          [2.207730540213082, 48.89361802344921],
          [2.206509197139011, 48.89276456045234],
          [2.20407421984168, 48.8914533544146],
          [2.202959817177291, 48.89119412717196],
          [2.201781375700794, 48.8906646608551],
          [2.200517237808508, 48.89127677117983],
          [2.200448637379259, 48.891303293304276],
          [2.200242697544927, 48.89139185190225],
          [2.200050392505794, 48.89148949461757],
          [2.199815378190923, 48.89170376563399],
          [2.199027243707303, 48.89247192729764],
          [2.198750776539023, 48.89262296516383],
          [2.198992379295723, 48.89287639608618],
          [2.198521779208713, 48.893801273400214],
          [2.197625817530309, 48.894818808411095],
          [2.196595046445527, 48.895324519090295]
        ]
      ]
    },
    "properties": {
      "iris": "0403",
      "num_dept": "92",
      "nom_dept": "HAUTS-DE-SEINE",
      "code_region": "11",
      "typ_iris": "H",
      "nom_region": "ILE-DE-FRANCE",
      "geo_point_2d": [48.89455973647301, 2.20328161937256],
      "p12_pop": 2460.02397502,
      "nom_com": "Nanterre",
      "depcom": "92050",
      "nom_iris": "Barbet",
      "code_region_2016": "11",
      "dcomiris": "920500403"
    }
  }, {
    "type": "Feature",
    "geometry": {
      "type": "MultiPolygon",
      "coordinates": [
        [
          [
            [2.229213392987185, 48.88964577224142],
            [2.229213412139192, 48.889645748179014],
            [2.229203074170084, 48.88963470972205],
            [2.229213392987185, 48.88964577224142]
          ]
        ],
        [
          [
            [2.226829962431575, 48.89368080880357],
            [2.226838450633603, 48.89356844687872],
            [2.230167532878442, 48.890799079520214],
            [2.229917567816226, 48.890400685194216],
            [2.229213392987185, 48.88964577224142],
            [2.228967857530363, 48.889954258558696],
            [2.228483840109957, 48.89022094187615],
            [2.227832148433621, 48.89048204537879],
            [2.226844370687757, 48.8905062489736],
            [2.226719804403654, 48.890445189064764],
            [2.226600199009915, 48.89041743651353],
            [2.226389961295941, 48.89043136714904],
            [2.226157477950869, 48.89074912935397],
            [2.225265812500872, 48.891646296957575],
            [2.223296129183338, 48.89202924487514],
            [2.224420685108056, 48.89253026878885],
            [2.225059725362258, 48.89348859996508],
            [2.226379858984949, 48.89377323123001],
            [2.226829962431575, 48.89368080880357]
          ]
        ]
      ]
    },
    "properties": {
      "iris": "0501",
      "num_dept": "92",
      "nom_dept": "HAUTS-DE-SEINE",
      "code_region": "11",
      "typ_iris": "H",
      "nom_region": "ILE-DE-FRANCE",
      "geo_point_2d": [48.89181392137459, 2.2269962375582435],
      "p12_pop": 2148.8905249,
      "nom_com": "Nanterre",
      "depcom": "92050",
      "nom_iris": "Arlequin",
      "code_region_2016": "11",
      "dcomiris": "920500501"
    }
  }, {
    "type": "Feature",
    "geometry": {
      "type": "Polygon",
      "coordinates": [
        [
          [2.177223664945821, 48.89154347226008],
          [2.176227268775128, 48.89193682860191],
          [2.175188307343011, 48.892519374533464],
          [2.174149186285578, 48.89310191020074],
          [2.173110179782341, 48.89368434755916],
          [2.172912145987481, 48.89379539743361],
          [2.171877825029832, 48.89438163351035],
          [2.170843482211986, 48.8949677704159],
          [2.16980925105399, 48.89555398894344],
          [2.16934869983283, 48.89581493110054],
          [2.169848115973944, 48.896230291163114],
          [2.170796576756842, 48.896876561240184],
          [2.171656270599428, 48.89746231346684],
          [2.172656756830208, 48.89807358368583],
          [2.173657130164043, 48.89868484426426],
          [2.17428249477019, 48.89906687853191],
          [2.175311474581739, 48.89965718733117],
          [2.176340614124197, 48.900247487909276],
          [2.176518380868273, 48.90034943575358],
          [2.17771149804023, 48.90078535657057],
          [2.178904636612081, 48.90122117540455],
          [2.180097657345809, 48.90165707116864],
          [2.18040961554011, 48.901770993371535],
          [2.181623109621857, 48.9021817424188],
          [2.182079989488402, 48.902336400784996],
          [2.183325715738795, 48.902702925331],
          [2.183600826407839, 48.902783852110396],
          [2.18481631976412, 48.90319197366041],
          [2.186031830773238, 48.903600172646435],
          [2.187247362249444, 48.90400826922116],
          [2.18846291138241, 48.904416443231256],
          [2.189678480978031, 48.904824514829514],
          [2.190894068234331, 48.90523266386252],
          [2.192109675948855, 48.90564071048313],
          [2.193124055011122, 48.904985192930056],
          [2.193154526691949, 48.90486758618087],
          [2.193289676414137, 48.90442153019612],
          [2.192895347931695, 48.90433820387165],
          [2.190446319153794, 48.903759595179324],
          [2.187556347525905, 48.903134597804716],
          [2.186314386919049, 48.902856277689864],
          [2.186731068289054, 48.90238066364205],
          [2.188544697705051, 48.90067524130085],
          [2.189292163457851, 48.89997882384751],
          [2.18977374442171, 48.89971228289684],
          [2.192124767182555, 48.89861218231024],
          [2.193100381316019, 48.89815191538051],
          [2.192779040553241, 48.89776303619035],
          [2.190372907167736, 48.89727913972519],
          [2.188800798638496, 48.89623336585482],
          [2.187358825337289, 48.8950247737271],
          [2.186975332804431, 48.89468941590487],
          [2.186605611143919, 48.893411823665666],
          [2.186547086378374, 48.893238033622694],
          [2.186204503816822, 48.89252037164826],
          [2.186153707024934, 48.89236713871613],
          [2.185691200172572, 48.892202113296875],
          [2.18532339716061, 48.892173530706515],
          [2.183264144400454, 48.89215950311919],
          [2.181464454802848, 48.89211852571253],
          [2.180960154708571, 48.892097000708034],
          [2.180387803903817, 48.89206637414679],
          [2.177054746957115, 48.891616956809344],
          [2.177223664945821, 48.89154347226008]
        ]
      ]
    },
    "properties": {
      "iris": "0804",
      "num_dept": "92",
      "nom_dept": "HAUTS-DE-SEINE",
      "code_region": "11",
      "typ_iris": "H",
      "nom_region": "ILE-DE-FRANCE",
      "geo_point_2d": [48.897411043508946, 2.181586523886004],
      "p12_pop": 2879.02245645,
      "nom_com": "Nanterre",
      "depcom": "92050",
      "nom_iris": "Acacias Ouest",
      "code_region_2016": "11",
      "dcomiris": "920500804"
    }
  }, {
    "type": "Feature",
    "geometry": {
      "type": "Polygon",
      "coordinates": [
        [
          [2.216542893087531, 48.887632454644866],
          [2.21738214140608, 48.887143306109316],
          [2.217849823740541, 48.886876560029705],
          [2.218060765088685, 48.88681498397714],
          [2.218368805816761, 48.88682598869817],
          [2.219990724292335, 48.887798859309235],
          [2.220125875677256, 48.88788068020587],
          [2.220152879069278, 48.88789884286927],
          [2.220556720714577, 48.88825221467461],
          [2.220890617688607, 48.88863211003074],
          [2.220931007406791, 48.88875828022653],
          [2.221877243801941, 48.88871020301874],
          [2.223485812147889, 48.88859293953838],
          [2.224326237443912, 48.88852491092001],
          [2.224290844411414, 48.88824588672698],
          [2.224147139189568, 48.8878681327395],
          [2.223797779565957, 48.887188576155445],
          [2.223698096484459, 48.88702344069845],
          [2.223415908136117, 48.886741916120975],
          [2.223186276672854, 48.88668556678709],
          [2.22281929738149, 48.88660314404639],
          [2.222107247402689, 48.88670644085193],
          [2.221842517892771, 48.88708244340145],
          [2.221484885209781, 48.8872869667268],
          [2.220566371625457, 48.886696420033545],
          [2.21947290351974, 48.88595183749541],
          [2.219095010057444, 48.88568856449642],
          [2.21774330993802, 48.88579665519909],
          [2.214644045553906, 48.8860371752024],
          [2.214275741028466, 48.88604375222494],
          [2.214397515690122, 48.88612549202267],
          [2.214560609750214, 48.88623448298828],
          [2.214922256622436, 48.88648867035456],
          [2.216542893087531, 48.887632454644866]
        ]
      ]
    },
    "properties": {
      "iris": "0504",
      "num_dept": "92",
      "nom_dept": "HAUTS-DE-SEINE",
      "code_region": "11",
      "typ_iris": "H",
      "nom_region": "ILE-DE-FRANCE",
      "geo_point_2d": [48.887142606359745, 2.21988838149833],
      "p12_pop": 1583.68605535,
      "nom_com": "Nanterre",
      "depcom": "92050",
      "nom_iris": "Fontenelles Gallois",
      "code_region_2016": "11",
      "dcomiris": "920500504"
    }
  }, {
    "type": "Feature",
    "geometry": {
      "type": "Polygon",
      "coordinates": [
        [
          [2.204703375723279, 48.90205168643173],
          [2.205108596813951, 48.90231509204863],
          [2.20828407180759, 48.904395675765464],
          [2.209320688366242, 48.90435359992263],
          [2.210809097690869, 48.904223480917125],
          [2.211582371615163, 48.90360803778132],
          [2.213322273015458, 48.90221652691328],
          [2.213612383384734, 48.90197561341321],
          [2.213626295128282, 48.90195771818523],
          [2.214164501709727, 48.9015475595402],
          [2.214440286064904, 48.901351516384],
          [2.213814343514149, 48.90124857293713],
          [2.2059108267008, 48.9016819797102],
          [2.204703375723279, 48.90205168643173]
        ]
      ]
    },
    "properties": {
      "iris": "0601",
      "num_dept": "92",
      "nom_dept": "HAUTS-DE-SEINE",
      "code_region": "11",
      "typ_iris": "H",
      "nom_region": "ILE-DE-FRANCE",
      "geo_point_2d": [48.90263280972178, 2.2095170036132648],
      "p12_pop": 1882.83860781,
      "nom_com": "Nanterre",
      "depcom": "92050",
      "nom_iris": "Anatole France",
      "code_region_2016": "11",
      "dcomiris": "920500601"
    }
  }, {
    "type": "Feature",
    "geometry": {
      "type": "Polygon",
      "coordinates": [
        [
          [2.206185767069924, 48.88535185599335],
          [2.206588743409782, 48.88485952862931],
          [2.206964302946826, 48.884376101512885],
          [2.208130469262323, 48.883016547354615],
          [2.208477346698935, 48.88262402879606],
          [2.208015133298432, 48.882351168559474],
          [2.207540381681844, 48.8820602365373],
          [2.207144309019544, 48.88175183668442],
          [2.206599086330542, 48.88132553206273],
          [2.206317957073694, 48.88110782553538],
          [2.206035603060379, 48.88089011016679],
          [2.205966325340669, 48.880962138038456],
          [2.205079982974016, 48.88185596214948],
          [2.203553479378727, 48.883679581996255],
          [2.203399101781449, 48.88387641073718],
          [2.202828353422574, 48.8846370544783],
          [2.203680525608708, 48.88500246283878],
          [2.204663652025818, 48.88500899760252],
          [2.205439359437195, 48.88511388513793],
          [2.206185767069924, 48.88535185599335]
        ]
      ]
    },
    "properties": {
      "iris": "0205",
      "num_dept": "92",
      "nom_dept": "HAUTS-DE-SEINE",
      "code_region": "11",
      "typ_iris": "H",
      "nom_region": "ILE-DE-FRANCE",
      "geo_point_2d": [48.8833515160782, 2.2057232654936687],
      "p12_pop": 1845.02095245,
      "nom_com": "Nanterre",
      "depcom": "92050",
      "nom_iris": "Damades La Source",
      "code_region_2016": "11",
      "dcomiris": "920500205"
    }
  }, {
    "type": "Feature",
    "geometry": {
      "type": "Polygon",
      "coordinates": [
        [
          [2.227735249885749, 48.888325619296765],
          [2.227706984011153, 48.8883004353889],
          [2.226485076187048, 48.88838958654653],
          [2.224808223573786, 48.888486662754055],
          [2.224862715799157, 48.888783797116744],
          [2.224881048889435, 48.888999756899814],
          [2.224782600657508, 48.88979548294257],
          [2.224660676067125, 48.89042737707187],
          [2.224616794228472, 48.890535013324396],
          [2.226389961295941, 48.89043136714904],
          [2.226600199009915, 48.89041743651353],
          [2.226719804403654, 48.890445189064764],
          [2.226844370687757, 48.8905062489736],
          [2.227832148433621, 48.89048204537879],
          [2.228483840109957, 48.89022094187615],
          [2.228967857530363, 48.889954258558696],
          [2.229213412139192, 48.889645748179014],
          [2.229203074170084, 48.88963470972205],
          [2.228545942141686, 48.88904869659383],
          [2.227735249885749, 48.888325619296765]
        ]
      ]
    },
    "properties": {
      "iris": "0502",
      "num_dept": "92",
      "nom_dept": "HAUTS-DE-SEINE",
      "code_region": "11",
      "typ_iris": "H",
      "nom_region": "ILE-DE-FRANCE",
      "geo_point_2d": [48.88947114620397, 2.2267269249316155],
      "p12_pop": 4027.72585737,
      "nom_com": "Nanterre",
      "depcom": "92050",
      "nom_iris": "Demoiselles d'Avignon",
      "code_region_2016": "11",
      "dcomiris": "920500502"
    }
  }, {
    "type": "Feature",
    "geometry": {
      "type": "Polygon",
      "coordinates": [
        [
          [2.185783263795732, 48.88753605570358],
          [2.185632921746614, 48.88761804266289],
          [2.185680794715743, 48.887635185980095],
          [2.189765785445063, 48.887962379530705],
          [2.193349126932528, 48.88825187977863],
          [2.193662483348948, 48.88828097067415],
          [2.193962902530076, 48.888256013139696],
          [2.197013654822238, 48.88770992583041],
          [2.199746742407072, 48.887233585603845],
          [2.200429664294933, 48.88712123354858],
          [2.199903073452483, 48.88686679936292],
          [2.198412114592292, 48.88627153467621],
          [2.192363419254873, 48.88410825334369],
          [2.1920598903869, 48.88408902794982],
          [2.191031908965378, 48.88467988144203],
          [2.190003904216489, 48.88527072579063],
          [2.188975876139787, 48.88586156099524],
          [2.188890700182946, 48.885910447953535],
          [2.187822369043999, 48.886469343133406],
          [2.186754014972531, 48.88702822849676],
          [2.185783263795732, 48.88753605570358]
        ]
      ]
    },
    "properties": {
      "iris": "0301",
      "num_dept": "92",
      "nom_dept": "HAUTS-DE-SEINE",
      "code_region": "11",
      "typ_iris": "H",
      "nom_region": "ILE-DE-FRANCE",
      "geo_point_2d": [48.88656588341978, 2.1929361107565413],
      "p12_pop": 3561.31158572,
      "nom_com": "Nanterre",
      "depcom": "92050",
      "nom_iris": "Lenine Joffre",
      "code_region_2016": "11",
      "dcomiris": "920500301"
    }
  }, {
    "type": "Feature",
    "geometry": {
      "type": "Polygon",
      "coordinates": [
        [
          [2.200517237808508, 48.89127677117983],
          [2.200234447304147, 48.89104105465787],
          [2.199748208454788, 48.89073203076904],
          [2.198154265990757, 48.88973209381274],
          [2.197759469083987, 48.8897744164001],
          [2.197209443249328, 48.88997757831378],
          [2.197020422159927, 48.89003027130149],
          [2.195389526787509, 48.889202362348655],
          [2.193932567081736, 48.88845366414291],
          [2.194416858455635, 48.88906128090066],
          [2.194563815170089, 48.88925922522937],
          [2.194630468632594, 48.889358601076125],
          [2.194735695396413, 48.88952119015346],
          [2.195133579145477, 48.89016149775604],
          [2.194856112717524, 48.89046540804669],
          [2.193456223083517, 48.89103156460699],
          [2.193817715895718, 48.89137934533376],
          [2.194815018052423, 48.89294640816059],
          [2.19667223528463, 48.89299161758878],
          [2.198558468969126, 48.89271143216042],
          [2.198750776539023, 48.89262296516383],
          [2.199027243707303, 48.89247192729764],
          [2.199815378190923, 48.89170376563399],
          [2.200050392505794, 48.89148949461757],
          [2.200242697544927, 48.89139185190225],
          [2.200448637379259, 48.891303293304276],
          [2.200517237808508, 48.89127677117983]
        ]
      ]
    },
    "properties": {
      "iris": "0406",
      "num_dept": "92",
      "nom_dept": "HAUTS-DE-SEINE",
      "code_region": "11",
      "typ_iris": "H",
      "nom_region": "ILE-DE-FRANCE",
      "geo_point_2d": [48.89125467583593, 2.1967705131753394],
      "p12_pop": 2063.702414,
      "nom_com": "Nanterre",
      "depcom": "92050",
      "nom_iris": "Cathedrale",
      "code_region_2016": "11",
      "dcomiris": "920500406"
    }
  }, {
    "type": "Feature",
    "geometry": {
      "type": "Polygon",
      "coordinates": [
        [
          [2.186204503816822, 48.89252037164826],
          [2.186547086378374, 48.893238033622694],
          [2.186605611143919, 48.893411823665666],
          [2.186975332804431, 48.89468941590487],
          [2.187358825337289, 48.8950247737271],
          [2.188800798638496, 48.89623336585482],
          [2.190372907167736, 48.89727913972519],
          [2.192779040553241, 48.89776303619035],
          [2.193100381316019, 48.89815191538051],
          [2.194763082132396, 48.897362699144495],
          [2.195957992228509, 48.89683112687334],
          [2.194851156893087, 48.896077692028484],
          [2.193727515049107, 48.89553080050849],
          [2.192249863398248, 48.89494544728679],
          [2.191422822761056, 48.894625097989625],
          [2.189003180154188, 48.89374015550216],
          [2.187110484563233, 48.89304814189794],
          [2.186528011117315, 48.89276539135539],
          [2.186204503816822, 48.89252037164826]
        ]
      ]
    },
    "properties": {
      "iris": "0803",
      "num_dept": "92",
      "nom_dept": "HAUTS-DE-SEINE",
      "code_region": "11",
      "typ_iris": "H",
      "nom_region": "ILE-DE-FRANCE",
      "geo_point_2d": [48.895709935866904, 2.1909243333683377],
      "p12_pop": 2112.74387747,
      "nom_com": "Nanterre",
      "depcom": "92050",
      "nom_iris": "Zilina Henri Martin",
      "code_region_2016": "11",
      "dcomiris": "920500803"
    }
  }, {
    "type": "Feature",
    "geometry": {
      "type": "Polygon",
      "coordinates": [
        [
          [2.224653761991348, 48.91259755602774],
          [2.224709954298608, 48.912489102167164],
          [2.224439107731707, 48.91235245120375],
          [2.223166617690277, 48.91167871011226],
          [2.223334494387154, 48.91140064987263],
          [2.223823791482351, 48.910611970051704],
          [2.224033388403679, 48.910280489494305],
          [2.224423936702561, 48.90970817297649],
          [2.224758443312955, 48.909233878007676],
          [2.223644364061215, 48.90892988662722],
          [2.223332210679988, 48.90881994450508],
          [2.222898224055979, 48.90865525191637],
          [2.219891181346753, 48.90973557679279],
          [2.219157246210085, 48.91027578353481],
          [2.219587752559355, 48.91049982191901],
          [2.220054536856408, 48.91069774480151],
          [2.222009549501825, 48.911500330465294],
          [2.224340756276461, 48.91245163879954],
          [2.224653761991348, 48.91259755602774]
        ]
      ]
    },
    "properties": {
      "iris": "0703",
      "num_dept": "92",
      "nom_dept": "HAUTS-DE-SEINE",
      "code_region": "11",
      "typ_iris": "H",
      "nom_region": "ILE-DE-FRANCE",
      "geo_point_2d": [48.91021756370148, 2.2222477094526045],
      "p12_pop": 1347.85331973,
      "nom_com": "Nanterre",
      "depcom": "92050",
      "nom_iris": "Paquerettes Est",
      "code_region_2016": "11",
      "dcomiris": "920500703"
    }
  }, {
    "type": "Feature",
    "geometry": {
      "type": "Polygon",
      "coordinates": [
        [
          [2.214798992341772, 48.877877807105676],
          [2.213711879772608, 48.87733501977435],
          [2.212624652168233, 48.87679231133324],
          [2.211537584916133, 48.876249503723024],
          [2.210450538959101, 48.87570677590052],
          [2.210099923429609, 48.875531697607094],
          [2.209057920416422, 48.874951750865335],
          [2.208015802912025, 48.87437188377294],
          [2.207759604429106, 48.87422926000536],
          [2.206833474595095, 48.87488927672749],
          [2.205907458991743, 48.87554919686794],
          [2.205646521621853, 48.87573516014705],
          [2.204696298834107, 48.876380070694466],
          [2.203746052514613, 48.87702497332208],
          [2.203019128020587, 48.877518195922555],
          [2.203130070742122, 48.877574694157914],
          [2.204160509003118, 48.87911583817868],
          [2.204866379766437, 48.879707622929054],
          [2.205966975936728, 48.880078803810385],
          [2.206699098545942, 48.88033691357745],
          [2.206035603060379, 48.88089011016679],
          [2.206317957073694, 48.88110782553538],
          [2.206599086330542, 48.88132553206273],
          [2.207144309019544, 48.88175183668442],
          [2.207540381681844, 48.8820602365373],
          [2.208015133298432, 48.882351168559474],
          [2.208477346698935, 48.88262402879606],
          [2.208990853689137, 48.882123789399685],
          [2.209627893996768, 48.881416884195474],
          [2.211871506752097, 48.879717880991905],
          [2.212898913877604, 48.879241960800506],
          [2.215179819225064, 48.87806790836237],
          [2.214798992341772, 48.877877807105676]
        ]
      ]
    },
    "properties": {
      "iris": "0204",
      "num_dept": "92",
      "nom_dept": "HAUTS-DE-SEINE",
      "code_region": "11",
      "typ_iris": "H",
      "nom_region": "ILE-DE-FRANCE",
      "geo_point_2d": [48.878203744145765, 2.208573330455369],
      "p12_pop": 2029.45721899,
      "nom_com": "Nanterre",
      "depcom": "92050",
      "nom_iris": "Garches",
      "code_region_2016": "11",
      "dcomiris": "920500204"
    }
  }, {
    "type": "Feature",
    "geometry": {
      "type": "Polygon",
      "coordinates": [
        [
          [2.197199583945305, 48.88113462426089],
          [2.19617171915546, 48.881725523467146],
          [2.195143694691724, 48.88231641261491],
          [2.194115783249628, 48.88290729353591],
          [2.193087848481503, 48.88349816531433],
          [2.1920598903869, 48.88408902794982],
          [2.192363419254873, 48.88410825334369],
          [2.198412114592292, 48.88627153467621],
          [2.199903073452483, 48.88686679936292],
          [2.200429664294933, 48.88712123354858],
          [2.20089521044285, 48.887079374406426],
          [2.205852339123259, 48.885754349151526],
          [2.206185767069924, 48.88535185599335],
          [2.205439359437195, 48.88511388513793],
          [2.204663652025818, 48.88500899760252],
          [2.203680525608708, 48.88500246283878],
          [2.202828353422574, 48.8846370544783],
          [2.203399101781449, 48.88387641073718],
          [2.202312700043728, 48.883491452604694],
          [2.199726756679926, 48.88260650681174],
          [2.197133797198302, 48.881262430034404],
          [2.19707181285985, 48.88121434892815],
          [2.197199583945305, 48.88113462426089]
        ]
      ]
    },
    "properties": {
      "iris": "0206",
      "num_dept": "92",
      "nom_dept": "HAUTS-DE-SEINE",
      "code_region": "11",
      "typ_iris": "H",
      "nom_region": "ILE-DE-FRANCE",
      "geo_point_2d": [48.884388035116544, 2.198934965945549],
      "p12_pop": 3002.40538518,
      "nom_com": "Nanterre",
      "depcom": "92050",
      "nom_iris": "Suisses Boule",
      "code_region_2016": "11",
      "dcomiris": "920500206"
    }
  }, {
    "type": "Feature",
    "geometry": {
      "type": "Polygon",
      "coordinates": [
        [
          [2.185783263795732, 48.88753605570358],
          [2.184697638092899, 48.888080325598374],
          [2.183611989695402, 48.888624585380384],
          [2.183917892029872, 48.88847648041438],
          [2.184524554170363, 48.889100440608054],
          [2.186434640538546, 48.890885136573424],
          [2.188352145820625, 48.89123989859956],
          [2.190331252887069, 48.89100283084515],
          [2.191966424193916, 48.891237362195504],
          [2.19218168959197, 48.89142767594777],
          [2.192455829443671, 48.89133959107808],
          [2.193456223083517, 48.89103156460699],
          [2.194856112717524, 48.89046540804669],
          [2.195133579145477, 48.89016149775604],
          [2.194735695396413, 48.88952119015346],
          [2.194630468632594, 48.889358601076125],
          [2.194563815170089, 48.88925922522937],
          [2.194416858455635, 48.88906128090066],
          [2.193932567081736, 48.88845366414291],
          [2.193662483348948, 48.88828097067415],
          [2.193349126932528, 48.88825187977863],
          [2.189765785445063, 48.887962379530705],
          [2.185680794715743, 48.887635185980095],
          [2.185632921746614, 48.88761804266289],
          [2.185783263795732, 48.88753605570358]
        ]
      ]
    },
    "properties": {
      "iris": "0302",
      "num_dept": "92",
      "nom_dept": "HAUTS-DE-SEINE",
      "code_region": "11",
      "typ_iris": "H",
      "nom_region": "ILE-DE-FRANCE",
      "geo_point_2d": [48.889474768212686, 2.1896213113367473],
      "p12_pop": 2973.99932602,
      "nom_com": "Nanterre",
      "depcom": "92050",
      "nom_iris": "Goulvents",
      "code_region_2016": "11",
      "dcomiris": "920500302"
    }
  }, {
    "type": "Feature",
    "geometry": {
      "type": "Polygon",
      "coordinates": [
        [
          [2.226829962431575, 48.89368080880357],
          [2.226379858984949, 48.89377323123001],
          [2.225059725362258, 48.89348859996508],
          [2.224420685108056, 48.89253026878885],
          [2.223296129183338, 48.89202924487514],
          [2.217060636428478, 48.89328817757385],
          [2.214548688473199, 48.89389586632458],
          [2.213676135331215, 48.8941428531362],
          [2.213385117844524, 48.8944467156966],
          [2.213329750259641, 48.89450031206898],
          [2.213397397294562, 48.89453672981946],
          [2.214614110519464, 48.895255189731365],
          [2.215695962621623, 48.89587382677948],
          [2.215792380027563, 48.8958115048731],
          [2.217362033144648, 48.894832506509914],
          [2.21842148475622, 48.89421915514003],
          [2.21864103341065, 48.89413128396881],
          [2.219024529889358, 48.894024966163954],
          [2.219854834883507, 48.89386490074732],
          [2.220031339637778, 48.894100776756616],
          [2.220240457901589, 48.89439037518222],
          [2.220299032781844, 48.89503288081859],
          [2.220838314779486, 48.89554505363876],
          [2.222524962622947, 48.89608653189936],
          [2.223054978054695, 48.89612504563659],
          [2.22371269859521, 48.89592336387767],
          [2.226161552555781, 48.89515499519981],
          [2.226565910335732, 48.89483744499453],
          [2.226790693994125, 48.89448815670587],
          [2.226802390802679, 48.894343439585775],
          [2.226817923576334, 48.89412410254144],
          [2.226829962431575, 48.89368080880357]
        ]
      ]
    },
    "properties": {
      "iris": "0510",
      "num_dept": "92",
      "nom_dept": "HAUTS-DE-SEINE",
      "code_region": "11",
      "typ_iris": "H",
      "nom_region": "ILE-DE-FRANCE",
      "geo_point_2d": [48.89414749465654, 2.2209520801672324],
      "p12_pop": 2534.38835181,
      "nom_com": "Nanterre",
      "depcom": "92050",
      "nom_iris": "Central Park",
      "code_region_2016": "11",
      "dcomiris": "920500510"
    }
  }, {
    "type": "Feature",
    "geometry": {
      "type": "Polygon",
      "coordinates": [
        [
          [2.216542893087531, 48.887632454644866],
          [2.216374791500969, 48.88792813673013],
          [2.216439392978509, 48.88997905203319],
          [2.216543898456656, 48.89037544448876],
          [2.216883744365201, 48.89035878148592],
          [2.217661594990147, 48.89032789263079],
          [2.21869854510627, 48.89029886947166],
          [2.219178266386711, 48.89014020782644],
          [2.220901715905038, 48.888892990403974],
          [2.220931007406791, 48.88875828022653],
          [2.220890617688607, 48.88863211003074],
          [2.220556720714577, 48.88825221467461],
          [2.220152879069278, 48.88789884286927],
          [2.220125875677256, 48.88788068020587],
          [2.219990724292335, 48.887798859309235],
          [2.218368805816761, 48.88682598869817],
          [2.218060765088685, 48.88681498397714],
          [2.217849823740541, 48.886876560029705],
          [2.21738214140608, 48.887143306109316],
          [2.216542893087531, 48.887632454644866]
        ]
      ]
    },
    "properties": {
      "iris": "0505",
      "num_dept": "92",
      "nom_dept": "HAUTS-DE-SEINE",
      "code_region": "11",
      "typ_iris": "H",
      "nom_region": "ILE-DE-FRANCE",
      "geo_point_2d": [48.888707297739536, 2.218314554337536],
      "p12_pop": 2431.46899159,
      "nom_com": "Nanterre",
      "depcom": "92050",
      "nom_iris": "Champs aux Melles",
      "code_region_2016": "11",
      "dcomiris": "920500505"
    }
  }, {
    "type": "Feature",
    "geometry": {
      "type": "Polygon",
      "coordinates": [
        [
          [2.204175118956685, 48.88931359808801],
          [2.203782958373989, 48.88909487960304],
          [2.200781275120822, 48.887403276415036],
          [2.200429664294933, 48.88712123354858],
          [2.199746742407072, 48.887233585603845],
          [2.197013654822238, 48.88770992583041],
          [2.193962902530076, 48.888256013139696],
          [2.193662483348948, 48.88828097067415],
          [2.193932567081736, 48.88845366414291],
          [2.195389526787509, 48.889202362348655],
          [2.197020422159927, 48.89003027130149],
          [2.197209443249328, 48.88997757831378],
          [2.197759469083987, 48.8897744164001],
          [2.198154265990757, 48.88973209381274],
          [2.199748208454788, 48.89073203076904],
          [2.200234447304147, 48.89104105465787],
          [2.200517237808508, 48.89127677117983],
          [2.201781375700794, 48.8906646608551],
          [2.202959817177291, 48.89119412717196],
          [2.20407421984168, 48.8914533544146],
          [2.204767097507743, 48.89100469138314],
          [2.205201722712466, 48.89098914056743],
          [2.205553770045463, 48.89102250394599],
          [2.206134072353028, 48.89053171642216],
          [2.206203217251764, 48.890469221107985],
          [2.205256719458234, 48.88993260256104],
          [2.204337371752383, 48.889405509689304],
          [2.204175118956685, 48.88931359808801]
        ]
      ]
    },
    "properties": {
      "iris": "0408",
      "num_dept": "92",
      "nom_dept": "HAUTS-DE-SEINE",
      "code_region": "11",
      "typ_iris": "H",
      "nom_region": "ILE-DE-FRANCE",
      "geo_point_2d": [48.88926430212504, 2.200254149826306],
      "p12_pop": 2243.50029561,
      "nom_com": "Nanterre",
      "depcom": "92050",
      "nom_iris": "Joliot Boule",
      "code_region_2016": "11",
      "dcomiris": "920500408"
    }
  }, {
    "type": "Feature",
    "geometry": {
      "type": "Polygon",
      "coordinates": [
        [
          [2.20407421984168, 48.8914533544146],
          [2.206509197139011, 48.89276456045234],
          [2.207730540213082, 48.89361802344921],
          [2.209527178901119, 48.894403325121516],
          [2.209825305635124, 48.894531199576086],
          [2.210357055202295, 48.8945077270625],
          [2.210602268044952, 48.89448236369625],
          [2.210888531023586, 48.89443029028984],
          [2.211066098077103, 48.894377500150725],
          [2.211714849152437, 48.89392311152491],
          [2.211936051834752, 48.893762687080304],
          [2.211760256699651, 48.8936626031587],
          [2.207082106062855, 48.89096878104097],
          [2.206203217251764, 48.890469221107985],
          [2.206134072353028, 48.89053171642216],
          [2.205553770045463, 48.89102250394599],
          [2.205201722712466, 48.89098914056743],
          [2.204767097507743, 48.89100469138314],
          [2.20407421984168, 48.8914533544146]
        ]
      ]
    },
    "properties": {
      "iris": "0407",
      "num_dept": "92",
      "nom_dept": "HAUTS-DE-SEINE",
      "code_region": "11",
      "typ_iris": "H",
      "nom_region": "ILE-DE-FRANCE",
      "geo_point_2d": [48.892613600054574, 2.208056253946996],
      "p12_pop": 1610.73747556,
      "nom_com": "Nanterre",
      "depcom": "92050",
      "nom_iris": "Hotel de Ville",
      "code_region_2016": "11",
      "dcomiris": "920500407"
    }
  }, {
    "type": "Feature",
    "geometry": {
      "type": "Polygon",
      "coordinates": [
        [
          [2.224653761991348, 48.91259755602774],
          [2.224340756276461, 48.91245163879954],
          [2.222009549501825, 48.911500330465294],
          [2.220054536856408, 48.91069774480151],
          [2.219587752559355, 48.91049982191901],
          [2.219157246210085, 48.91027578353481],
          [2.218659059907423, 48.910107060016266],
          [2.217796577482284, 48.90975798041194],
          [2.216395770790235, 48.90918935694371],
          [2.214430185686296, 48.90834838626303],
          [2.213267879169978, 48.907620759600675],
          [2.213011947713785, 48.907403600358215],
          [2.212777590413968, 48.907474006297036],
          [2.212544869091541, 48.90753542929195],
          [2.212448834265353, 48.90757077087991],
          [2.212297824926622, 48.90763273060636],
          [2.205981150927397, 48.91039691469518],
          [2.205445396672948, 48.910636179326],
          [2.204988139280569, 48.91046128502085],
          [2.206150353055045, 48.91093223347408],
          [2.206159697726342, 48.91093679200989],
          [2.207254072182729, 48.91147373968249],
          [2.207465591471609, 48.91159663756146],
          [2.208488845762067, 48.91219146881986],
          [2.209017376136545, 48.91254434576537],
          [2.209975990530543, 48.91318424232185],
          [2.210674754151499, 48.91365865285102],
          [2.211625003950131, 48.91430396601864],
          [2.212219771611909, 48.91476383293822],
          [2.212300922559479, 48.914838290482],
          [2.213096693882642, 48.91556872981011],
          [2.213892623981996, 48.916299164257204],
          [2.214087792282835, 48.91644091795521],
          [2.215004801982023, 48.91710684812558],
          [2.215146408037679, 48.91719950608127],
          [2.216114832022504, 48.91783293891428],
          [2.217083414673597, 48.918466454364555],
          [2.218051885812948, 48.91909987080215],
          [2.21837813447166, 48.91931046053707],
          [2.219352977078243, 48.91993968055467],
          [2.220327843259553, 48.92056889227615],
          [2.220398136819999, 48.92061341598184],
          [2.221333021204299, 48.919958320842035],
          [2.222267745604621, 48.919303217127045],
          [2.22320258157323, 48.918648196532374],
          [2.223986398855807, 48.91809884897484],
          [2.224297606609713, 48.91722331339077],
          [2.224608941670572, 48.91634768725342],
          [2.224920128479539, 48.91547214864224],
          [2.22523144125208, 48.914596609400476],
          [2.225542607118742, 48.91372106776331],
          [2.225768034917381, 48.91308679721214],
          [2.225629813018481, 48.91302295156252],
          [2.225591866925451, 48.91300561922911],
          [2.225242857647952, 48.91284903960833],
          [2.224653761991348, 48.91259755602774]
        ]
      ]
    },
    "properties": {
      "iris": "0701",
      "num_dept": "92",
      "nom_dept": "HAUTS-DE-SEINE",
      "code_region": "11",
      "typ_iris": "H",
      "nom_region": "ILE-DE-FRANCE",
      "geo_point_2d": [48.91356773970721, 2.216869497187327],
      "p12_pop": 2390.88636189,
      "nom_com": "Nanterre",
      "depcom": "92050",
      "nom_iris": "Hopital",
      "code_region_2016": "11",
      "dcomiris": "920500701"
    }
  }, {
    "type": "Feature",
    "geometry": {
      "type": "Polygon",
      "coordinates": [
        [
          [2.209203431090266, 48.89946443302203],
          [2.209504453546197, 48.899403467116265],
          [2.211129707282313, 48.89837095924437],
          [2.211171033380606, 48.89834425150237],
          [2.211858706337853, 48.897971059664634],
          [2.21216012530772, 48.8978831097284],
          [2.212380661838286, 48.897731673879534],
          [2.212389774515403, 48.89706622786445],
          [2.212358516721805, 48.89640051593453],
          [2.21229779386367, 48.89554574967886],
          [2.211561320080293, 48.895027653121645],
          [2.210909414679365, 48.89481624253452],
          [2.210556458372567, 48.89470599609511],
          [2.20995975648004, 48.89537836056469],
          [2.210272496474194, 48.89553241084402],
          [2.210445431159853, 48.89582133802708],
          [2.210417199879245, 48.89678343872087],
          [2.209987886681488, 48.8971200156803],
          [2.209130657342342, 48.8969817960098],
          [2.207888476654416, 48.89623613282433],
          [2.207393650321087, 48.89648503202297],
          [2.206841113529591, 48.89694039363995],
          [2.206503364777528, 48.89762182928519],
          [2.206564303767702, 48.89809833973923],
          [2.206724001112003, 48.89836002416575],
          [2.206844699278875, 48.89849563347719],
          [2.207112689737639, 48.89881208426639],
          [2.207655658444452, 48.89897755747065],
          [2.209093361884398, 48.899436726255814],
          [2.209203431090266, 48.89946443302203]
        ]
      ]
    },
    "properties": {
      "iris": "0606",
      "num_dept": "92",
      "nom_dept": "HAUTS-DE-SEINE",
      "code_region": "11",
      "typ_iris": "H",
      "nom_region": "ILE-DE-FRANCE",
      "geo_point_2d": [48.89737290790399, 2.2096801057974935],
      "p12_pop": 3205.95294464,
      "nom_com": "Nanterre",
      "depcom": "92050",
      "nom_iris": "Berthelot Sud et Nord",
      "code_region_2016": "11",
      "dcomiris": "920500606"
    }
  }, {
    "type": "Feature",
    "geometry": {
      "type": "Polygon",
      "coordinates": [
        [
          [2.193100381316019, 48.89815191538051],
          [2.192124767182555, 48.89861218231024],
          [2.18977374442171, 48.89971228289684],
          [2.189292163457851, 48.89997882384751],
          [2.188544697705051, 48.90067524130085],
          [2.186731068289054, 48.90238066364205],
          [2.186314386919049, 48.902856277689864],
          [2.187556347525905, 48.903134597804716],
          [2.190446319153794, 48.903759595179324],
          [2.192895347931695, 48.90433820387165],
          [2.193289676414137, 48.90442153019612],
          [2.19367344599214, 48.903425229461895],
          [2.194915473639689, 48.900253820900545],
          [2.195059580215701, 48.89971195259243],
          [2.194644516085236, 48.899366336605055],
          [2.193449020475588, 48.89845194335646],
          [2.193100381316019, 48.89815191538051]
        ]
      ]
    },
    "properties": {
      "iris": "0805",
      "num_dept": "92",
      "nom_dept": "HAUTS-DE-SEINE",
      "code_region": "11",
      "typ_iris": "H",
      "nom_region": "ILE-DE-FRANCE",
      "geo_point_2d": [48.90146218697778, 2.1913538758490563],
      "p12_pop": 2056.00462903,
      "nom_com": "Nanterre",
      "depcom": "92050",
      "nom_iris": "Acacias Est",
      "code_region_2016": "11",
      "dcomiris": "920500805"
    }
  }, {
    "type": "Feature",
    "geometry": {
      "type": "Polygon",
      "coordinates": [
        [
          [2.227735249885749, 48.888325619296765],
          [2.226924443781436, 48.88760253515457],
          [2.226113661531414, 48.88687935512088],
          [2.22530303682267, 48.88615625992889],
          [2.224492298268971, 48.88543315789],
          [2.224374268703303, 48.88530046003221],
          [2.221796492327008, 48.88550829856662],
          [2.219790702136384, 48.88565712626127],
          [2.219095010057444, 48.88568856449642],
          [2.21947290351974, 48.88595183749541],
          [2.220566371625457, 48.886696420033545],
          [2.221484885209781, 48.8872869667268],
          [2.221842517892771, 48.88708244340145],
          [2.222107247402689, 48.88670644085193],
          [2.22281929738149, 48.88660314404639],
          [2.223186276672854, 48.88668556678709],
          [2.223415908136117, 48.886741916120975],
          [2.223698096484459, 48.88702344069845],
          [2.223797779565957, 48.887188576155445],
          [2.224147139189568, 48.8878681327395],
          [2.224290844411414, 48.88824588672698],
          [2.224326237443912, 48.88852491092001],
          [2.224808223573786, 48.888486662754055],
          [2.226485076187048, 48.88838958654653],
          [2.227706984011153, 48.8883004353889],
          [2.227735249885749, 48.888325619296765]
        ]
      ]
    },
    "properties": {
      "iris": "0503",
      "num_dept": "92",
      "nom_dept": "HAUTS-DE-SEINE",
      "code_region": "11",
      "typ_iris": "H",
      "nom_region": "ILE-DE-FRANCE",
      "geo_point_2d": [48.88675067685496, 2.2237285825708226],
      "p12_pop": 2532.80827402,
      "nom_com": "Nanterre",
      "depcom": "92050",
      "nom_iris": "Fontenelles Decour",
      "code_region_2016": "11",
      "dcomiris": "920500503"
    }
  }, {
    "type": "Feature",
    "geometry": {
      "type": "Polygon",
      "coordinates": [
        [
          [2.196595046445527, 48.895324519090295],
          [2.197625817530309, 48.894818808411095],
          [2.198521779208713, 48.893801273400214],
          [2.198992379295723, 48.89287639608618],
          [2.198750776539023, 48.89262296516383],
          [2.198558468969126, 48.89271143216042],
          [2.19667223528463, 48.89299161758878],
          [2.194815018052423, 48.89294640816059],
          [2.193817715895718, 48.89137934533376],
          [2.193456223083517, 48.89103156460699],
          [2.192455829443671, 48.89133959107808],
          [2.19218168959197, 48.89142767594777],
          [2.191812180823268, 48.89157941933222],
          [2.190886958841156, 48.89191105302782],
          [2.190005535219052, 48.8921355947238],
          [2.189770164623129, 48.892177080730576],
          [2.189605555451864, 48.892202587274184],
          [2.18931860885584, 48.89223661855779],
          [2.187028077436333, 48.89218511615717],
          [2.186769256730218, 48.89216474237731],
          [2.186484701298689, 48.89204562557386],
          [2.186319366005061, 48.892152422988126],
          [2.186916885455999, 48.892318362796786],
          [2.190090886547649, 48.893356125045415],
          [2.193525318260301, 48.89449538190611],
          [2.196495716498815, 48.89548573311035],
          [2.196595046445527, 48.895324519090295]
        ]
      ]
    },
    "properties": {
      "iris": "0401",
      "num_dept": "92",
      "nom_dept": "HAUTS-DE-SEINE",
      "code_region": "11",
      "typ_iris": "H",
      "nom_region": "ILE-DE-FRANCE",
      "geo_point_2d": [48.89325558443837, 2.1937667815991175],
      "p12_pop": 2290.70681835,
      "nom_com": "Nanterre",
      "depcom": "92050",
      "nom_iris": "Gare",
      "code_region_2016": "11",
      "dcomiris": "920500401"
    }
  }, {
    "type": "Feature",
    "geometry": {
      "type": "Polygon",
      "coordinates": [
        [
          [2.224326237443912, 48.88852491092001],
          [2.223485812147889, 48.88859293953838],
          [2.221877243801941, 48.88871020301874],
          [2.220931007406791, 48.88875828022653],
          [2.220901715905038, 48.888892990403974],
          [2.219178266386711, 48.89014020782644],
          [2.21869854510627, 48.89029886947166],
          [2.217661594990147, 48.89032789263079],
          [2.216883744365201, 48.89035878148592],
          [2.216543898456656, 48.89037544448876],
          [2.216448438989353, 48.890383903181664],
          [2.216123328200441, 48.8905179350404],
          [2.215005655723285, 48.89137766427501],
          [2.214319048997544, 48.89203093614097],
          [2.212046789043546, 48.89368247559336],
          [2.211936051834752, 48.893762687080304],
          [2.211990195129487, 48.893790023441646],
          [2.212274414345619, 48.89393578704018],
          [2.213221460843108, 48.89444564056786],
          [2.213329750259641, 48.89450031206898],
          [2.213385117844524, 48.8944467156966],
          [2.213676135331215, 48.8941428531362],
          [2.214548688473199, 48.89389586632458],
          [2.217060636428478, 48.89328817757385],
          [2.223296129183338, 48.89202924487514],
          [2.225265812500872, 48.891646296957575],
          [2.226157477950869, 48.89074912935397],
          [2.226389961295941, 48.89043136714904],
          [2.224616794228472, 48.890535013324396],
          [2.224660676067125, 48.89042737707187],
          [2.224782600657508, 48.88979548294257],
          [2.224881048889435, 48.888999756899814],
          [2.224862715799157, 48.888783797116744],
          [2.224808223573786, 48.888486662754055],
          [2.224326237443912, 48.88852491092001]
        ]
      ]
    },
    "properties": {
      "iris": "0508",
      "num_dept": "92",
      "nom_dept": "HAUTS-DE-SEINE",
      "code_region": "11",
      "typ_iris": "H",
      "nom_region": "ILE-DE-FRANCE",
      "geo_point_2d": [48.8913376449995, 2.2195528734058487],
      "p12_pop": 2374.96039412,
      "nom_com": "Nanterre",
      "depcom": "92050",
      "nom_iris": "Picasso Colombe",
      "code_region_2016": "11",
      "dcomiris": "920500508"
    }
  }]
}
